<svg xmlns="http://www.w3.org/2000/svg" xmlns:xlink="http://www.w3.org/1999/xlink" version="1.1" id="Layer_1" x="0" y="0" viewBox="0 0 1000 458.8" enable-background="new 0 0 1000 458.8" xml:space="preserve">
  <path fill="#4bbf69" d="M189.6 287.5L131.4 206c-8.6 1.2-16.5 1.7-23.7 1.7H38v79.8H20.3V43.6h87.5c30.7 0 54.7 7.3 72.1 21.8C197.3 79.9 206 100 206 125.8c0 19.3-4.9 35.5-14.8 48.6 -9.9 13.1-24 22.4-42.3 27.7l61 85.4H189.6zM107.7 192c26 0 45.9-5.7 59.6-17.2 13.7-11.5 20.6-27.8 20.6-49 0-21.1-6.9-37.5-20.6-49 -13.7-11.5-33.6-17.2-59.6-17.2H38V192H107.7z"/>
  <path fill="#4bbf69" d="M391.3 200.7H234.9c0.5 14.2 4.1 26.8 10.8 37.8 6.7 11 15.9 19.6 27.4 25.6 11.5 6 24.4 9.1 38.9 9.1 11.8 0 22.8-2.1 32.9-6.4 10.1-4.3 18.5-10.6 25.3-19l10.1 11.5c-7.9 9.5-17.8 16.8-29.8 22 -12 5.1-24.9 7.7-38.9 7.7 -18.1 0-34.3-3.9-48.4-11.8 -14.2-7.9-25.3-18.8-33.3-32.8 -8-13.9-12-29.8-12-47.7 0-17.7 3.8-33.5 11.3-47.6 7.5-14.1 17.9-25 31.2-32.9 13.2-7.9 28.1-11.8 44.6-11.8 16.5 0 31.3 3.9 44.4 11.7 13.1 7.8 23.5 18.6 31 32.6 7.5 13.9 11.3 29.7 11.3 47.4L391.3 200.7zM270.4 128.1c-10.2 5.7-18.4 13.7-24.6 24 -6.2 10.3-9.7 22-10.6 35h139.4c-0.7-13-4.2-24.6-10.5-34.8 -6.3-10.2-14.5-18.2-24.7-24 -10.2-5.8-21.7-8.7-34.5-8.7C292.1 119.6 280.6 122.4 270.4 128.1z"/>
  <path fill="#4bbf69" d="M495.2 96.9v53.7h107.7v53.3H495.2v83.6h-69V43.6h191.3v53.3H495.2z"/>
  <path fill="#4bbf69" d="M643.2 98.6h66.2v188.9h-66.2V98.6zM648 73.1c-7.7-7.4-11.5-16.8-11.5-28.2 0-11.6 3.8-21 11.3-28.2 7.5-7.2 17-10.8 28.4-10.8 11.6 0 21.1 3.6 28.6 10.8 7.4 7.2 11.1 16.6 11.1 28.2 0 11.4-3.8 20.8-11.3 28.2 -7.6 7.4-17 11.2-28.4 11.2C665.1 84.2 655.7 80.5 648 73.1z"/>
  <path fill="#4bbf69" d="M882.6 279.8c-5.6 3.5-12.4 6.2-20.4 8s-16.6 2.8-25.6 2.8c-24.6 0-43.6-6-56.8-18.1 -13.2-12.1-19.9-30.1-19.9-54v-63.4h-27.5v-49.5H760V56.5h66.2v49.1h43.2v49.5h-43.2v62.7c0 6.7 1.8 12 5.4 15.9 3.6 3.8 8.4 5.7 14.5 5.7 7.7 0 14.4-2 20.2-5.9L882.6 279.8z"/>
  <path fill="#4bbf69" d="M911.2 279.5c-7.7-7.4-11.5-16.8-11.5-28.2 0-11.6 3.8-21 11.3-28.2 7.5-7.2 17-10.8 28.4-10.8 11.6 0 21.1 3.6 28.6 10.8 7.4 7.2 11.1 16.6 11.1 28.2 0 11.4-3.8 20.8-11.3 28.2 -7.6 7.4-17 11.2-28.4 11.2C928.2 290.6 918.8 286.9 911.2 279.5z"/>
  <path fill="#4bbf69" d="M53.7 426.1L40 406.5c-1.7 0.1-3 0.2-4 0.2H20.1v19.5H11v-63.9h24.9c8.3 0 14.8 2 19.5 5.9 4.7 4 7.1 9.4 7.1 16.3 0 4.9-1.2 9.1-3.7 12.6 -2.4 3.5-5.9 6-10.4 7.6l15.2 21.5H53.7zM48.9 395.2c3-2.5 4.6-6.1 4.6-10.7 0-4.6-1.5-8.2-4.6-10.6 -3-2.5-7.5-3.7-13.2-3.7H20.1v28.8h15.5C41.4 398.9 45.9 397.7 48.9 395.2z"/>
  <path fill="#4bbf69" d="M119.7 404.8H80.4c0.5 4.3 2.4 7.7 5.6 10.3s7.2 3.9 11.9 3.9c5.8 0 10.4-1.9 14-5.8l4.8 5.7c-2.2 2.6-4.9 4.5-8.2 5.8 -3.3 1.3-6.9 2-10.9 2 -5.1 0-9.7-1.1-13.6-3.2 -4-2.1-7-5-9.2-8.8 -2.2-3.8-3.2-8-3.2-12.8 0-4.7 1-8.9 3.2-12.7 2.1-3.8 5-6.7 8.7-8.8 3.7-2.1 7.8-3.2 12.5-3.2 4.6 0 8.8 1 12.4 3.2 3.6 2.1 6.5 5 8.5 8.8 2 3.8 3.1 8.1 3.1 13C119.9 402.9 119.8 403.7 119.7 404.8zM85.4 388.5c-2.8 2.6-4.5 5.9-5 10h31.1c-0.5-4.1-2.1-7.4-5-10s-6.3-3.9-10.5-3.9S88.2 385.9 85.4 388.5z"/>
  <path fill="#4bbf69" d="M207 382.6c3.6 3.5 5.3 8.8 5.3 15.7v27.9h-8.8v-26.9c0-4.7-1.1-8.2-3.2-10.6 -2.2-2.4-5.3-3.6-9.3-3.6 -4.4 0-8 1.4-10.6 4.2 -2.6 2.8-3.9 6.7-3.9 11.9v24.9h-8.8v-26.9c0-4.7-1.1-8.2-3.2-10.6 -2.2-2.4-5.3-3.6-9.3-3.6 -4.4 0-8 1.4-10.6 4.2 -2.6 2.8-3.9 6.7-3.9 11.9v24.9H132v-48.4h8.4v7.2c1.8-2.5 4.1-4.4 6.9-5.7 2.9-1.3 6.1-2 9.8-2 3.8 0 7.1 0.8 10 2.3 2.9 1.5 5.2 3.7 6.8 6.7 1.8-2.8 4.4-5 7.6-6.6 3.3-1.6 6.9-2.4 11-2.4C198.6 377.3 203.5 379 207 382.6z"/>
  <path fill="#4bbf69" d="M261.6 382.2c3.6 3.3 5.3 8.2 5.3 14.7v29.2h-8.3v-6.4c-1.5 2.3-3.5 4-6.3 5.2 -2.7 1.2-5.9 1.8-9.6 1.8 -5.4 0-9.8-1.3-13-3.9 -3.3-2.6-4.9-6.1-4.9-10.3 0-4.3 1.6-7.7 4.7-10.3 3.1-2.6 8-3.9 14.8-3.9h13.9v-1.7c0-3.8-1.1-6.7-3.3-8.7 -2.2-2-5.4-3-9.7-3 -2.9 0-5.7 0.5-8.4 1.4 -2.7 0.9-5.1 2.2-6.9 3.8l-3.7-6.6c2.5-2 5.5-3.5 9-4.6 3.5-1.1 7.2-1.6 11-1.6C252.9 377.3 258 378.9 261.6 382.2zM252.8 417.7c2.4-1.5 4.2-3.6 5.3-6.3v-6.8h-13.5c-7.4 0-11.1 2.5-11.1 7.5 0 2.4 0.9 4.4 2.8 5.8 1.9 1.4 4.5 2.1 7.9 2.1C247.5 419.9 250.4 419.2 252.8 417.7z"/>
  <path fill="#4bbf69" d="M302 403.6l-10 9.3v13.2h-8.8v-67.8h8.8v43.5l26.4-24.1h10.6l-20.4 20 22.4 28.4h-10.8L302 403.6z"/>
  <path fill="#4bbf69" d="M383 404.8h-39.3c0.5 4.3 2.4 7.7 5.6 10.3s7.2 3.9 11.9 3.9c5.8 0 10.4-1.9 14-5.8l4.8 5.7c-2.2 2.6-4.9 4.5-8.2 5.8 -3.3 1.3-6.9 2-10.9 2 -5.1 0-9.7-1.1-13.6-3.2 -4-2.1-7-5-9.2-8.8 -2.2-3.8-3.2-8-3.2-12.8 0-4.7 1-8.9 3.2-12.7 2.1-3.8 5-6.7 8.7-8.8 3.7-2.1 7.8-3.2 12.5-3.2s8.8 1 12.4 3.2c3.6 2.1 6.5 5 8.5 8.8 2 3.8 3.1 8.1 3.1 13C383.2 402.9 383.1 403.7 383 404.8zM348.7 388.5c-2.8 2.6-4.5 5.9-5 10h31.1c-0.5-4.1-2.1-7.4-5-10s-6.3-3.9-10.5-3.9C355 384.7 351.5 385.9 348.7 388.5z"/>
  <path fill="#4bbf69" d="M445.6 404v22.1h-9v-22.3l-25.4-41.6h9.8l20.5 33.7 20.5-33.7h9L445.6 404z"/>
  <path fill="#4bbf69" d="M486.7 423.5c-3.8-2.1-6.8-5.1-9-8.8 -2.2-3.7-3.2-8-3.2-12.7s1.1-9 3.2-12.7c2.2-3.7 5.2-6.7 9-8.8s8.2-3.2 13-3.2c4.8 0 9.1 1 12.9 3.2 3.8 2.1 6.8 5 8.9 8.8 2.2 3.7 3.2 8 3.2 12.7s-1.1 9-3.2 12.7 -5.1 6.7-8.9 8.8c-3.8 2.1-8.1 3.2-12.9 3.2C494.9 426.7 490.6 425.6 486.7 423.5zM508 416.9c2.5-1.4 4.4-3.4 5.8-6 1.4-2.6 2.1-5.6 2.1-8.9 0-3.3-0.7-6.3-2.1-8.9 -1.4-2.6-3.3-4.6-5.8-6s-5.3-2.1-8.4-2.1c-3.1 0-5.9 0.7-8.4 2.1s-4.4 3.4-5.8 6c-1.4 2.6-2.1 5.6-2.1 8.9 0 3.3 0.7 6.3 2.1 8.9 1.4 2.6 3.4 4.6 5.8 6s5.3 2.1 8.4 2.1C502.8 419 505.6 418.3 508 416.9z"/>
  <path fill="#4bbf69" d="M582.1 377.7v48.4h-8.3v-7.3c-1.8 2.5-4.1 4.4-7 5.8 -2.9 1.4-6 2.1-9.5 2.1 -6.5 0-11.5-1.8-15.3-5.3 -3.7-3.6-5.6-8.8-5.6-15.8v-27.9h8.8v26.8c0 4.7 1.1 8.2 3.4 10.6 2.3 2.4 5.5 3.6 9.7 3.6 4.6 0 8.3-1.4 11-4.2 2.7-2.8 4-6.8 4-11.9v-25H582.1z"/>
  <path fill="#4bbf69" d="M613.9 379.5c3-1.5 6.6-2.2 10.9-2.2v8.5c-0.5-0.1-1.2-0.1-2-0.1 -4.7 0-8.5 1.4-11.2 4.2s-4.1 6.9-4.1 12.1v24.1h-8.8v-48.4h8.4v8.1C608.7 383 610.9 380.9 613.9 379.5z"/>
  <path fill="#4bbf69" d="M671.2 370.1v22.3h32.1v7.9h-32.1v25.8h-9.1v-63.9h45.1v7.9H671.2z"/>
  <path fill="#4bbf69" d="M718.9 366.8c-1.1-1.1-1.7-2.4-1.7-4 0-1.6 0.6-2.9 1.7-4.1 1.1-1.1 2.5-1.7 4.2-1.7 1.7 0 3.1 0.5 4.2 1.6 1.1 1.1 1.7 2.4 1.7 4 0 1.6-0.6 3-1.7 4.2 -1.1 1.1-2.5 1.7-4.2 1.7C721.5 368.4 720 367.9 718.9 366.8zM718.8 377.7h8.8v48.4h-8.8V377.7z"/>
  <path fill="#4bbf69" d="M771.5 423.3c-1.3 1.1-2.9 1.9-4.7 2.5 -1.9 0.6-3.8 0.9-5.8 0.9 -4.9 0-8.6-1.3-11.3-3.9 -2.7-2.6-4-6.4-4-11.2v-26.6h-8.2v-7.2h8.2v-10.6h8.8v10.6h13.9v7.2h-13.9v26.2c0 2.6 0.7 4.6 2 6 1.3 1.4 3.2 2.1 5.6 2.1 2.7 0 5-0.8 6.8-2.3L771.5 423.3z"/>
  <path fill="#4bbf69" d="M822.6 382.6c3.6 3.6 5.4 8.8 5.4 15.7v27.9h-8.8v-26.9c0-4.7-1.1-8.2-3.4-10.6 -2.3-2.4-5.5-3.6-9.7-3.6 -4.7 0-8.5 1.4-11.2 4.2 -2.7 2.8-4.1 6.7-4.1 11.9v24.9h-8.8v-48.4h8.4v7.3c1.8-2.5 4.2-4.4 7.2-5.8 3-1.3 6.4-2 10.3-2C814.1 377.3 818.9 379 822.6 382.6z"/>
  <path fill="#4bbf69" d="M887.8 404.8h-39.3c0.5 4.3 2.4 7.7 5.6 10.3s7.2 3.9 11.9 3.9c5.8 0 10.4-1.9 14-5.8l4.8 5.7c-2.2 2.6-4.9 4.5-8.2 5.8 -3.3 1.3-6.9 2-10.9 2 -5.1 0-9.7-1.1-13.6-3.2 -4-2.1-7-5-9.2-8.8 -2.2-3.8-3.2-8-3.2-12.8 0-4.7 1-8.9 3.2-12.7 2.1-3.8 5-6.7 8.7-8.8s7.8-3.2 12.5-3.2c4.6 0 8.8 1 12.4 3.2 3.6 2.1 6.5 5 8.5 8.8 2 3.8 3.1 8.1 3.1 13C888 402.9 887.9 403.7 887.8 404.8zM853.5 388.5c-2.8 2.6-4.5 5.9-5 10h31.1c-0.5-4.1-2.1-7.4-5-10s-6.3-3.9-10.5-3.9C859.9 384.7 856.4 385.9 853.5 388.5z"/>
  <path fill="#4bbf69" d="M902.6 425.1c-3.7-1.1-6.5-2.4-8.6-4.1l3.7-6.9c2.1 1.5 4.7 2.7 7.8 3.7 3 0.9 6.1 1.4 9.2 1.4 7.7 0 11.5-2.2 11.5-6.6 0-1.5-0.5-2.6-1.6-3.5 -1-0.9-2.3-1.5-3.9-1.9 -1.6-0.4-3.8-0.8-6.6-1.3 -3.9-0.6-7.1-1.3-9.5-2.1 -2.5-0.8-4.6-2.1-6.3-4 -1.8-1.9-2.6-4.5-2.6-7.9 0-4.4 1.8-7.9 5.5-10.5 3.7-2.6 8.6-4 14.7-4 3.2 0 6.5 0.4 9.7 1.2 3.2 0.8 5.9 1.9 7.9 3.2l-3.7 6.9c-4-2.6-8.6-3.8-14-3.8 -3.7 0-6.5 0.6-8.5 1.8 -1.9 1.2-2.9 2.8-2.9 4.8 0 1.6 0.5 2.8 1.6 3.7s2.5 1.6 4.1 2c1.6 0.4 3.9 0.9 6.8 1.5 3.9 0.7 7 1.4 9.5 2.1 2.4 0.8 4.5 2.1 6.2 3.9 1.7 1.8 2.6 4.4 2.6 7.7 0 4.4-1.9 7.9-5.6 10.5 -3.7 2.6-8.8 3.9-15.3 3.9C910.1 426.7 906.3 426.1 902.6 425.1z"/>
  <path fill="#4bbf69" d="M948.4 425.1c-3.7-1.1-6.5-2.4-8.6-4.1l3.7-6.9c2.1 1.5 4.7 2.7 7.8 3.7 3 0.9 6.1 1.4 9.2 1.4 7.7 0 11.5-2.2 11.5-6.6 0-1.5-0.5-2.6-1.6-3.5 -1-0.9-2.3-1.5-3.9-1.9 -1.6-0.4-3.8-0.8-6.6-1.3 -3.9-0.6-7.1-1.3-9.5-2.1 -2.5-0.8-4.6-2.1-6.3-4 -1.8-1.9-2.6-4.5-2.6-7.9 0-4.4 1.8-7.9 5.5-10.5 3.7-2.6 8.6-4 14.7-4 3.2 0 6.5 0.4 9.7 1.2 3.2 0.8 5.9 1.9 7.9 3.2l-3.7 6.9c-4-2.6-8.6-3.8-14-3.8 -3.7 0-6.5 0.6-8.5 1.8 -1.9 1.2-2.9 2.8-2.9 4.8 0 1.6 0.5 2.8 1.6 3.7s2.5 1.6 4.1 2c1.6 0.4 3.9 0.9 6.8 1.5 3.9 0.7 7 1.4 9.5 2.1 2.4 0.8 4.5 2.1 6.2 3.9 1.7 1.8 2.6 4.4 2.6 7.7 0 4.4-1.9 7.9-5.6 10.5 -3.7 2.6-8.8 3.9-15.3 3.9C955.8 426.7 952 426.1 948.4 425.1z"/>
</svg>
